%YAML 1.1
%TAG !u! tag:unity3d.com,2011:
--- !u!221 &22100000
AnimatorOverrideController:
  m_ObjectHideFlags: 0
  m_CorrespondingSourceObject: {fileID: 0}
  m_PrefabInternal: {fileID: 0}
  m_Name: GoblinAnimationController
  m_Controller: {fileID: 9100000, guid: 22ac45952ae92480ebe945d04519af22, type: 2}
  m_Clips: []
