%YAML 1.1
%TAG !u! tag:unity3d.com,2011:
--- !u!114 &11400000
MonoBehaviour:
  m_ObjectHideFlags: 0
  m_CorrespondingSourceObject: {fileID: 0}
  m_PrefabInternal: {fileID: 0}
  m_GameObject: {fileID: 0}
  m_Enabled: 1
  m_EditorHideFlags: 0
  m_Script: {fileID: 11500000, guid: d9a96ce6426ff4293a7255a22f0da359, type: 3}
  m_Name: TriggerData
  m_EditorClassIdentifier: 
  triggers:
  - mapName: Aeria
    name: dragonAttack
