%YAML 1.1
%TAG !u! tag:unity3d.com,2011:
--- !u!114 &11400000
MonoBehaviour:
  m_ObjectHideFlags: 0
  m_CorrespondingSourceObject: {fileID: 0}
  m_PrefabInternal: {fileID: 0}
  m_GameObject: {fileID: 0}
  m_Enabled: 1
  m_EditorHideFlags: 0
  m_Script: {fileID: 11500000, guid: 9d1514134bc4fbd41bb739b1b9a49231, type: 3}
  m_Name: blue
  m_EditorClassIdentifier: 
  m_DefaultSprite: {fileID: 21301326, guid: d64cf98fed007464d98ad28fdf699055, type: 3}
  m_DefaultColliderType: 1
  m_TilingRules:
  - m_Neighbors: 0000000000000000000000000000000001000000000000000100000002000000
    m_Sprites:
    - {fileID: 21301326, guid: d64cf98fed007464d98ad28fdf699055, type: 3}
    m_AnimationSpeed: 1
    m_PerlinScale: 0.5
    m_RuleTransform: 0
    m_Output: 0
    m_ColliderType: 1
    m_RandomTransform: 0
  - m_Neighbors: 0000000000000000000000000100000000000000020000000100000000000000
    m_Sprites:
    - {fileID: 21301328, guid: d64cf98fed007464d98ad28fdf699055, type: 3}
    m_AnimationSpeed: 1
    m_PerlinScale: 0.5
    m_RuleTransform: 0
    m_Output: 0
    m_ColliderType: 1
    m_RandomTransform: 0
  - m_Neighbors: 0000000000000000020000000000000001000000020000000100000000000000
    m_Sprites:
    - {fileID: 21301330, guid: d64cf98fed007464d98ad28fdf699055, type: 3}
    m_AnimationSpeed: 1
    m_PerlinScale: 0.5
    m_RuleTransform: 0
    m_Output: 0
    m_ColliderType: 1
    m_RandomTransform: 0
  - m_Neighbors: 0000000002000000000000000100000001000000000000000100000000000000
    m_Sprites:
    - {fileID: 21301332, guid: d64cf98fed007464d98ad28fdf699055, type: 3}
    m_AnimationSpeed: 1
    m_PerlinScale: 0.5
    m_RuleTransform: 0
    m_Output: 0
    m_ColliderType: 1
    m_RandomTransform: 0
  - m_Neighbors: 0200000000000000000000000100000000000000000000000100000002000000
    m_Sprites:
    - {fileID: 21301334, guid: d64cf98fed007464d98ad28fdf699055, type: 3}
    m_AnimationSpeed: 1
    m_PerlinScale: 0.5
    m_RuleTransform: 0
    m_Output: 0
    m_ColliderType: 1
    m_RandomTransform: 0
  - m_Neighbors: 0000000001000000020000000000000001000000000000000000000000000000
    m_Sprites:
    - {fileID: 21301438, guid: d64cf98fed007464d98ad28fdf699055, type: 3}
    m_AnimationSpeed: 1
    m_PerlinScale: 0.5
    m_RuleTransform: 0
    m_Output: 0
    m_ColliderType: 1
    m_RandomTransform: 0
  - m_Neighbors: 0200000001000000000000000100000000000000000000000000000000000000
    m_Sprites:
    - {fileID: 21301440, guid: d64cf98fed007464d98ad28fdf699055, type: 3}
    m_AnimationSpeed: 1
    m_PerlinScale: 0.5
    m_RuleTransform: 0
    m_Output: 0
    m_ColliderType: 1
    m_RandomTransform: 0
  - m_Neighbors: 0200000001000000000000000000000000000000020000000100000000000000
    m_Sprites:
    - {fileID: 21301442, guid: d64cf98fed007464d98ad28fdf699055, type: 3}
    m_AnimationSpeed: 1
    m_PerlinScale: 0.5
    m_RuleTransform: 0
    m_Output: 0
    m_ColliderType: 1
    m_RandomTransform: 0
  - m_Neighbors: 0100000001000000010000000100000001000000010000000100000001000000
    m_Sprites:
    - {fileID: 21301444, guid: d64cf98fed007464d98ad28fdf699055, type: 3}
    m_AnimationSpeed: 1
    m_PerlinScale: 0.5
    m_RuleTransform: 0
    m_Output: 0
    m_ColliderType: 1
    m_RandomTransform: 0
  - m_Neighbors: 0000000001000000020000000000000000000000000000000100000002000000
    m_Sprites:
    - {fileID: 21301446, guid: d64cf98fed007464d98ad28fdf699055, type: 3}
    m_AnimationSpeed: 1
    m_PerlinScale: 0.5
    m_RuleTransform: 0
    m_Output: 0
    m_ColliderType: 1
    m_RandomTransform: 0
  - m_Neighbors: 0200000001000000000000000000000001000000000000000000000002000000
    m_Sprites:
    - {fileID: 21301552, guid: d64cf98fed007464d98ad28fdf699055, type: 3}
    m_AnimationSpeed: 1
    m_PerlinScale: 0.5
    m_RuleTransform: 0
    m_Output: 0
    m_ColliderType: 1
    m_RandomTransform: 0
  - m_Neighbors: 0000000000000000000000000100000001000000020000000000000002000000
    m_Sprites:
    - {fileID: 21301554, guid: d64cf98fed007464d98ad28fdf699055, type: 3}
    m_AnimationSpeed: 1
    m_PerlinScale: 0.5
    m_RuleTransform: 0
    m_Output: 0
    m_ColliderType: 1
    m_RandomTransform: 0
  - m_Neighbors: 0000000001000000020000000100000000000000020000000000000000000000
    m_Sprites:
    - {fileID: 21301556, guid: d64cf98fed007464d98ad28fdf699055, type: 3}
    m_AnimationSpeed: 1
    m_PerlinScale: 0.5
    m_RuleTransform: 0
    m_Output: 0
    m_ColliderType: 1
    m_RandomTransform: 0
