%YAML 1.1
%TAG !u! tag:unity3d.com,2011:
--- !u!114 &11400000
MonoBehaviour:
  m_ObjectHideFlags: 0
  m_CorrespondingSourceObject: {fileID: 0}
  m_PrefabInternal: {fileID: 0}
  m_GameObject: {fileID: 0}
  m_Enabled: 1
  m_EditorHideFlags: 0
  m_Script: {fileID: 11500000, guid: 9d1514134bc4fbd41bb739b1b9a49231, type: 3}
  m_Name: counterL2
  m_EditorClassIdentifier: 
  m_DefaultSprite: {fileID: 21300000, guid: 5aa6e382ce72e4329a9a0d966830b31c, type: 3}
  m_DefaultColliderType: 1
  m_TilingRules:
  - m_Neighbors: 0000000000000000000000000100000001000000000000000000000000000000
    m_Sprites:
    - {fileID: 21300000, guid: 5aa6e382ce72e4329a9a0d966830b31c, type: 3}
    m_AnimationSpeed: 1
    m_PerlinScale: 0.5
    m_RuleTransform: 0
    m_Output: 0
    m_ColliderType: 1
    m_RandomTransform: 0
  - m_Neighbors: 0000000000000000000000000200000001000000000000000000000000000000
    m_Sprites:
    - {fileID: 21300000, guid: 4db3ab0f6b15c413b96393d9532f78cd, type: 3}
    m_AnimationSpeed: 1
    m_PerlinScale: 0.5
    m_RuleTransform: 0
    m_Output: 0
    m_ColliderType: 1
    m_RandomTransform: 0
  - m_Neighbors: 0000000000000000000000000100000002000000000000000000000000000000
    m_Sprites:
    - {fileID: 21300000, guid: 426832eea31d64656bef5e0348ffdcfc, type: 3}
    m_AnimationSpeed: 1
    m_PerlinScale: 0.5
    m_RuleTransform: 0
    m_Output: 0
    m_ColliderType: 1
    m_RandomTransform: 0
